<svg xmlns="http://www.w3.org/2000/svg" width="24.5" height="30" viewBox="0 0 24.5 30">
  <g id="Group_79" data-name="Group 79" transform="translate(-75.25 -546.445)">
    <g id="Group_51" data-name="Group 51">
      <g id="Group_49" data-name="Group 49">
        <path id="Rectangle_79" data-name="Rectangle 79" d="M0,0H3A0,0,0,0,1,3,0V28.5A1.5,1.5,0,0,1,1.5,30h0A1.5,1.5,0,0,1,0,28.5V0A0,0,0,0,1,0,0Z" transform="translate(82.25 546.445)" fill="#c7151a"/>
        <path id="Path_38" data-name="Path 38" d="M75.25,553.445h7v-7Z" fill="#c7151a"/>
      </g>
      <g id="Group_50" data-name="Group 50">
        <path id="Rectangle_80" data-name="Rectangle 80" d="M0,0H3A0,0,0,0,1,3,0V28.5A1.5,1.5,0,0,1,1.5,30h0A1.5,1.5,0,0,1,0,28.5V0A0,0,0,0,1,0,0Z" transform="translate(92.75 576.445) rotate(180)" fill="#c7151a"/>
        <path id="Path_39" data-name="Path 39" d="M99.75,569.445h-7v7Z" fill="#c7151a"/>
      </g>
    </g>
  </g>
</svg>
