<svg xmlns="http://www.w3.org/2000/svg" width="100" height="100" viewBox="0 0 100 100">
  <g id="Group_7" data-name="Group 7" transform="translate(-137.5 -300)">
    <g id="Group_5" data-name="Group 5">
      <ellipse id="Ellipse_4" data-name="Ellipse 4" cx="50" cy="6.434" rx="50" ry="6.434" transform="translate(137.5 387.131)" fill="#b5b5b5"/>
      <g id="Group_3" data-name="Group 3">
        <path id="Path_2" data-name="Path 2" d="M218.461,327.489l14.081,62.378-11.6,3.287-14.081-62.378Z" fill="#8c4f25"/>
        <path id="Path_3" data-name="Path 3" d="M141.98,371.294l4.694,20.793,72.512-6.729-10.561-46.784Z" fill="#8e5c3a"/>
        <path id="Path_4" data-name="Path 4" d="M185.077,350.135l8.488,37.6,14.986-1.391-9.7-42.972Z" fill="#b5b5b5"/>
        <path id="Path_5" data-name="Path 5" d="M156.2,364.314l5.945,26.337,14.986-1.391-7.158-31.709Z" fill="#b5b5b5"/>
      </g>
      <g id="Group_4" data-name="Group 4">
        <rect id="Rectangle_12" data-name="Rectangle 12" width="57.416" height="13.405" transform="translate(153.768 380.429)" fill="#a55b28"/>
        <path id="Path_6" data-name="Path 6" d="M192.045,300H172.907l-11.962,80.429h43.062Z" fill="#c46f35"/>
        <path id="Path_7" data-name="Path 7" d="M199.781,352.011H165.171L162.7,368.633h39.553Z" fill="#d3d3d3"/>
        <path id="Path_8" data-name="Path 8" d="M194.6,317.158H170.355l-2.472,16.622h29.187Z" fill="#d3d3d3"/>
      </g>
    </g>
  </g>
</svg>
